%YAML 1.1
%TAG !u! tag:unity3d.com,2011:
--- !u!1 &2516265934161076336
GameObject:
  m_ObjectHideFlags: 0
  m_CorrespondingSourceObject: {fileID: 0}
  m_PrefabInstance: {fileID: 0}
  m_PrefabAsset: {fileID: 0}
  serializedVersion: 6
  m_Component:
  - component: {fileID: 2516265934161076335}
  - component: {fileID: 2516265934161076334}
  - component: {fileID: 2516265934161076337}
  m_Layer: 0
  m_Name: Coin
  m_TagString: Untagged
  m_Icon: {fileID: 0}
  m_NavMeshLayer: 0
  m_StaticEditorFlags: 0
  m_IsActive: 1
--- !u!4 &2516265934161076335
Transform:
  m_ObjectHideFlags: 0
  m_CorrespondingSourceObject: {fileID: 0}
  m_PrefabInstance: {fileID: 0}
  m_PrefabAsset: {fileID: 0}
  m_GameObject: {fileID: 2516265934161076336}
  m_LocalRotation: {x: 0, y: 0, z: 0, w: 1}
  m_LocalPosition: {x: -1.15, y: 1.23, z: 3.18}
  m_LocalScale: {x: 1, y: 1, z: 1}
  m_ConstrainProportionsScale: 0
  m_Children:
  - {fileID: 2693482380945388638}
  m_Father: {fileID: 0}
  m_RootOrder: 0
  m_LocalEulerAnglesHint: {x: 0, y: 0, z: 0}
--- !u!114 &2516265934161076334
MonoBehaviour:
  m_ObjectHideFlags: 0
  m_CorrespondingSourceObject: {fileID: 0}
  m_PrefabInstance: {fileID: 0}
  m_PrefabAsset: {fileID: 0}
  m_GameObject: {fileID: 2516265934161076336}
  m_Enabled: 1
  m_EditorHideFlags: 0
  m_Script: {fileID: 11500000, guid: 04b79970f52a44f4a879bb6f0239ff60, type: 3}
  m_Name: 
  m_EditorClassIdentifier: 
  _rotationSpeed: 360
--- !u!135 &2516265934161076337
SphereCollider:
  m_ObjectHideFlags: 0
  m_CorrespondingSourceObject: {fileID: 0}
  m_PrefabInstance: {fileID: 0}
  m_PrefabAsset: {fileID: 0}
  m_GameObject: {fileID: 2516265934161076336}
  m_Material: {fileID: 0}
  m_IsTrigger: 1
  m_Enabled: 1
  serializedVersion: 2
  m_Radius: 0.44
  m_Center: {x: 0, y: 0, z: 0}
--- !u!1001 &2516265934255592373
PrefabInstance:
  m_ObjectHideFlags: 0
  serializedVersion: 2
  m_Modification:
    serializedVersion: 2
    m_TransformParent: {fileID: 2516265934161076335}
    m_Modifications:
    - target: {fileID: -8679921383154817045, guid: e61b2ed88af14a340a2a20c679d1f35e,
        type: 3}
      propertyPath: m_RootOrder
      value: 0
      objectReference: {fileID: 0}
    - target: {fileID: -8679921383154817045, guid: e61b2ed88af14a340a2a20c679d1f35e,
        type: 3}
      propertyPath: m_LocalScale.x
      value: 0.7
      objectReference: {fileID: 0}
    - target: {fileID: -8679921383154817045, guid: e61b2ed88af14a340a2a20c679d1f35e,
        type: 3}
      propertyPath: m_LocalScale.y
      value: 0.7
      objectReference: {fileID: 0}
    - target: {fileID: -8679921383154817045, guid: e61b2ed88af14a340a2a20c679d1f35e,
        type: 3}
      propertyPath: m_LocalScale.z
      value: 0.7
      objectReference: {fileID: 0}
    - target: {fileID: -8679921383154817045, guid: e61b2ed88af14a340a2a20c679d1f35e,
        type: 3}
      propertyPath: m_LocalPosition.x
      value: -0
      objectReference: {fileID: 0}
    - target: {fileID: -8679921383154817045, guid: e61b2ed88af14a340a2a20c679d1f35e,
        type: 3}
      propertyPath: m_LocalPosition.y
      value: 0
      objectReference: {fileID: 0}
    - target: {fileID: -8679921383154817045, guid: e61b2ed88af14a340a2a20c679d1f35e,
        type: 3}
      propertyPath: m_LocalPosition.z
      value: 0
      objectReference: {fileID: 0}
    - target: {fileID: -8679921383154817045, guid: e61b2ed88af14a340a2a20c679d1f35e,
        type: 3}
      propertyPath: m_LocalRotation.w
      value: 0.5000007
      objectReference: {fileID: 0}
    - target: {fileID: -8679921383154817045, guid: e61b2ed88af14a340a2a20c679d1f35e,
        type: 3}
      propertyPath: m_LocalRotation.x
      value: -0.5000007
      objectReference: {fileID: 0}
    - target: {fileID: -8679921383154817045, guid: e61b2ed88af14a340a2a20c679d1f35e,
        type: 3}
      propertyPath: m_LocalRotation.y
      value: 0.49999928
      objectReference: {fileID: 0}
    - target: {fileID: -8679921383154817045, guid: e61b2ed88af14a340a2a20c679d1f35e,
        type: 3}
      propertyPath: m_LocalRotation.z
      value: -0.49999928
      objectReference: {fileID: 0}
    - target: {fileID: -8679921383154817045, guid: e61b2ed88af14a340a2a20c679d1f35e,
        type: 3}
      propertyPath: m_LocalEulerAnglesHint.x
      value: 0
      objectReference: {fileID: 0}
    - target: {fileID: -8679921383154817045, guid: e61b2ed88af14a340a2a20c679d1f35e,
        type: 3}
      propertyPath: m_LocalEulerAnglesHint.y
      value: 90
      objectReference: {fileID: 0}
    - target: {fileID: -8679921383154817045, guid: e61b2ed88af14a340a2a20c679d1f35e,
        type: 3}
      propertyPath: m_LocalEulerAnglesHint.z
      value: -90
      objectReference: {fileID: 0}
    - target: {fileID: -7511558181221131132, guid: e61b2ed88af14a340a2a20c679d1f35e,
        type: 3}
      propertyPath: m_Materials.Array.data[0]
      value: 
      objectReference: {fileID: 2100000, guid: e7fd036210a6b1b4f852b78d87ac7b86, type: 2}
    - target: {fileID: 919132149155446097, guid: e61b2ed88af14a340a2a20c679d1f35e,
        type: 3}
      propertyPath: m_Name
      value: Coin
      objectReference: {fileID: 0}
    m_RemovedComponents: []
    m_AddedGameObjects: []
  m_SourcePrefab: {fileID: 100100000, guid: e61b2ed88af14a340a2a20c679d1f35e, type: 3}
--- !u!4 &2693482380945388638 stripped
Transform:
  m_CorrespondingSourceObject: {fileID: -8679921383154817045, guid: e61b2ed88af14a340a2a20c679d1f35e,
    type: 3}
  m_PrefabInstance: {fileID: 2516265934255592373}
  m_PrefabAsset: {fileID: 0}
